<?xml version="1.0" encoding="utf-8"?>
<!DOCTYPE eagle SYSTEM "eagle.dtd">
<eagle version="8.0.2">
<drawing>
<settings>
<setting alwaysvectorfont="no"/>
<setting verticaltext="up"/>
</settings>
<grid distance="0.1" unitdist="inch" unit="inch" style="lines" multiple="1" display="no" altdistance="0.01" altunitdist="inch" altunit="inch"/>
<layers>
<layer number="1" name="Top" color="4" fill="1" visible="no" active="no"/>
<layer number="2" name="Route2" color="1" fill="3" visible="no" active="no"/>
<layer number="3" name="Route3" color="4" fill="3" visible="no" active="no"/>
<layer number="4" name="Route4" color="1" fill="4" visible="no" active="no"/>
<layer number="5" name="Route5" color="4" fill="4" visible="no" active="no"/>
<layer number="6" name="Route6" color="1" fill="8" visible="no" active="no"/>
<layer number="7" name="Route7" color="4" fill="8" visible="no" active="no"/>
<layer number="8" name="Route8" color="1" fill="2" visible="no" active="no"/>
<layer number="9" name="Route9" color="4" fill="2" visible="no" active="no"/>
<layer number="10" name="Route10" color="1" fill="7" visible="no" active="no"/>
<layer number="11" name="Route11" color="4" fill="7" visible="no" active="no"/>
<layer number="12" name="Route12" color="1" fill="5" visible="no" active="no"/>
<layer number="13" name="Route13" color="4" fill="5" visible="no" active="no"/>
<layer number="14" name="Route14" color="1" fill="6" visible="no" active="no"/>
<layer number="15" name="Route15" color="4" fill="6" visible="no" active="no"/>
<layer number="16" name="Bottom" color="1" fill="1" visible="no" active="no"/>
<layer number="17" name="Pads" color="2" fill="1" visible="no" active="no"/>
<layer number="18" name="Vias" color="2" fill="1" visible="no" active="no"/>
<layer number="19" name="Unrouted" color="6" fill="1" visible="no" active="no"/>
<layer number="20" name="Dimension" color="15" fill="1" visible="no" active="no"/>
<layer number="21" name="tPlace" color="7" fill="1" visible="no" active="no"/>
<layer number="22" name="bPlace" color="7" fill="1" visible="no" active="no"/>
<layer number="23" name="tOrigins" color="15" fill="1" visible="no" active="no"/>
<layer number="24" name="bOrigins" color="15" fill="1" visible="no" active="no"/>
<layer number="25" name="tNames" color="7" fill="1" visible="no" active="no"/>
<layer number="26" name="bNames" color="7" fill="1" visible="no" active="no"/>
<layer number="27" name="tValues" color="7" fill="1" visible="no" active="no"/>
<layer number="28" name="bValues" color="7" fill="1" visible="no" active="no"/>
<layer number="29" name="tStop" color="7" fill="3" visible="no" active="no"/>
<layer number="30" name="bStop" color="7" fill="6" visible="no" active="no"/>
<layer number="31" name="tCream" color="7" fill="4" visible="no" active="no"/>
<layer number="32" name="bCream" color="7" fill="5" visible="no" active="no"/>
<layer number="33" name="tFinish" color="6" fill="3" visible="no" active="no"/>
<layer number="34" name="bFinish" color="6" fill="6" visible="no" active="no"/>
<layer number="35" name="tGlue" color="7" fill="4" visible="no" active="no"/>
<layer number="36" name="bGlue" color="7" fill="5" visible="no" active="no"/>
<layer number="37" name="tTest" color="7" fill="1" visible="no" active="no"/>
<layer number="38" name="bTest" color="7" fill="1" visible="no" active="no"/>
<layer number="39" name="tKeepout" color="4" fill="11" visible="no" active="no"/>
<layer number="40" name="bKeepout" color="1" fill="11" visible="no" active="no"/>
<layer number="41" name="tRestrict" color="4" fill="10" visible="no" active="no"/>
<layer number="42" name="bRestrict" color="1" fill="10" visible="no" active="no"/>
<layer number="43" name="vRestrict" color="2" fill="10" visible="no" active="no"/>
<layer number="44" name="Drills" color="7" fill="1" visible="no" active="no"/>
<layer number="45" name="Holes" color="7" fill="1" visible="no" active="no"/>
<layer number="46" name="Milling" color="3" fill="1" visible="no" active="no"/>
<layer number="47" name="Measures" color="7" fill="1" visible="no" active="no"/>
<layer number="48" name="Document" color="7" fill="1" visible="no" active="no"/>
<layer number="49" name="Reference" color="7" fill="1" visible="no" active="no"/>
<layer number="51" name="tDocu" color="7" fill="1" visible="no" active="no"/>
<layer number="52" name="bDocu" color="7" fill="1" visible="no" active="no"/>
<layer number="90" name="Modules" color="5" fill="1" visible="yes" active="yes"/>
<layer number="91" name="Nets" color="2" fill="1" visible="yes" active="yes"/>
<layer number="92" name="Busses" color="1" fill="1" visible="yes" active="yes"/>
<layer number="93" name="Pins" color="2" fill="1" visible="no" active="yes"/>
<layer number="94" name="Symbols" color="4" fill="1" visible="yes" active="yes"/>
<layer number="95" name="Names" color="7" fill="1" visible="yes" active="yes"/>
<layer number="96" name="Values" color="7" fill="1" visible="yes" active="yes"/>
<layer number="97" name="Info" color="7" fill="1" visible="yes" active="yes"/>
<layer number="98" name="Guide" color="6" fill="1" visible="yes" active="yes"/>
</layers>
<schematic xreflabel="%F%N/%S.%C%R" xrefpart="/%S.%C%R">
<libraries>
<library name="transistor-fet">
<description>&lt;b&gt;Field Effect Transistors&lt;/b&gt;&lt;p&gt;
&lt;author&gt;Created by librarian@cadsoft.de&lt;/author&gt;&lt;p&gt;
&lt;p&gt;
Symbols changed according to IEC617&lt;p&gt; 
All types, packages and assignment to symbols and pins checked&lt;p&gt;
Package outlines partly checked&lt;p&gt;
&lt;p&gt;
JFET = junction FET&lt;p&gt;
IGBT-x = insulated gate bipolar transistor&lt;p&gt;
x=N: NPN; x=P: PNP&lt;p&gt;
IGFET-mc-nnn; (IGFET=insulated gate field effect transistor)&lt;P&gt;
m=D: depletion mode (Verdr&amp;auml;ngungstyp)&lt;p&gt;
m=E: enhancement mode (Anreicherungstyp)&lt;p&gt;
c: N=N-channel; P=P-Channel&lt;p&gt;
GDSB: gate, drain, source, bulk&lt;p&gt;
&lt;p&gt;
by R. Vogg  15.March.2002</description>
<packages>
<package name="TO92">
<description>&lt;b&gt;TO 92&lt;/b&gt;</description>
<wire x1="-2.0946" y1="-1.651" x2="-2.6549" y2="-0.254" width="0.127" layer="21" curve="-32.781"/>
<wire x1="-2.6549" y1="-0.254" x2="-0.7863" y2="2.5485" width="0.127" layer="21" curve="-78.3185"/>
<wire x1="0.7863" y1="2.5484" x2="2.0945" y2="-1.651" width="0.127" layer="21" curve="-111.1"/>
<wire x1="-2.0945" y1="-1.651" x2="2.0945" y2="-1.651" width="0.127" layer="21"/>
<wire x1="-2.2537" y1="-0.254" x2="-0.2863" y2="-0.254" width="0.127" layer="51"/>
<wire x1="-2.6549" y1="-0.254" x2="-2.2537" y2="-0.254" width="0.127" layer="21"/>
<wire x1="-0.2863" y1="-0.254" x2="0.2863" y2="-0.254" width="0.127" layer="21"/>
<wire x1="2.2537" y1="-0.254" x2="2.6549" y2="-0.254" width="0.127" layer="21"/>
<wire x1="0.2863" y1="-0.254" x2="2.2537" y2="-0.254" width="0.127" layer="51"/>
<wire x1="-0.7863" y1="2.5485" x2="0.7863" y2="2.5485" width="0.127" layer="51" curve="-34.2936"/>
<pad name="1" x="1.27" y="0" drill="0.8128" shape="octagon"/>
<pad name="2" x="0" y="1.905" drill="0.8128" shape="octagon"/>
<pad name="3" x="-1.27" y="0" drill="0.8128" shape="octagon"/>
<text x="3.175" y="0.635" size="1.27" layer="25" ratio="10">&gt;NAME</text>
<text x="3.175" y="-1.27" size="1.27" layer="27" ratio="10">&gt;VALUE</text>
<text x="-0.635" y="0.635" size="1.27" layer="51" ratio="10">2</text>
<text x="-2.159" y="0" size="1.27" layer="51" ratio="10">3</text>
<text x="1.143" y="0" size="1.27" layer="51" ratio="10">1</text>
</package>
<package name="TO202">
<description>&lt;b&gt;TO 202 horizontal&lt;/b&gt;</description>
<wire x1="-5.207" y1="-1.27" x2="-5.207" y2="7.3406" width="0.127" layer="21"/>
<wire x1="-3.5052" y1="7.3406" x2="-3.5052" y2="8.8138" width="0.127" layer="21"/>
<wire x1="-3.5052" y1="8.8138" x2="-5.207" y2="8.8138" width="0.127" layer="21"/>
<wire x1="5.207" y1="8.8138" x2="3.5052" y2="8.8138" width="0.127" layer="21"/>
<wire x1="3.5052" y1="8.8138" x2="3.5052" y2="7.3406" width="0.127" layer="21"/>
<wire x1="5.2578" y1="-1.27" x2="5.2578" y2="7.3406" width="0.127" layer="21"/>
<wire x1="-5.207" y1="7.3406" x2="-3.5052" y2="7.3406" width="0.127" layer="21"/>
<wire x1="3.8354" y1="-1.27" x2="3.8354" y2="7.3406" width="0.127" layer="21"/>
<wire x1="-5.207" y1="-1.27" x2="3.8354" y2="-1.27" width="0.127" layer="21"/>
<wire x1="5.207" y1="21.717" x2="5.207" y2="8.8138" width="0.127" layer="21"/>
<wire x1="5.207" y1="21.717" x2="-5.207" y2="21.717" width="0.127" layer="21"/>
<wire x1="-5.207" y1="21.717" x2="-5.207" y2="8.8138" width="0.127" layer="21"/>
<wire x1="-3.5052" y1="7.3406" x2="3.5052" y2="7.3406" width="0.127" layer="21"/>
<wire x1="3.8354" y1="-1.27" x2="5.2578" y2="-1.27" width="0.127" layer="21"/>
<wire x1="3.8354" y1="7.3406" x2="5.2578" y2="7.3406" width="0.127" layer="21"/>
<wire x1="3.5052" y1="7.3406" x2="3.8354" y2="7.3406" width="0.127" layer="21"/>
<wire x1="-4.953" y1="-1.016" x2="4.953" y2="-1.016" width="0.0508" layer="21"/>
<wire x1="4.953" y1="7.112" x2="4.953" y2="-1.016" width="0.0508" layer="21"/>
<wire x1="4.953" y1="7.112" x2="-4.953" y2="7.112" width="0.0508" layer="21"/>
<wire x1="-4.953" y1="-1.016" x2="-4.953" y2="7.112" width="0.0508" layer="21"/>
<circle x="-3.7592" y="-0.2286" radius="0.4318" width="0" layer="21"/>
<circle x="0" y="17.78" radius="1.651" width="0.127" layer="21"/>
<circle x="0" y="17.78" radius="4.191" width="0" layer="42"/>
<circle x="0" y="17.78" radius="4.191" width="0" layer="43"/>
<pad name="1" x="-2.54" y="-5.08" drill="1.1176" shape="long" rot="R90"/>
<pad name="2" x="0" y="-5.08" drill="1.1176" shape="long" rot="R90"/>
<pad name="3" x="2.54" y="-5.08" drill="1.1176" shape="long" rot="R90"/>
<text x="-2.54" y="4.318" size="1.27" layer="25" ratio="10">&gt;NAME</text>
<text x="-4.445" y="2.159" size="1.27" layer="27" ratio="10">&gt;VALUE</text>
<text x="-2.54" y="-0.635" size="1.27" layer="21" ratio="10">1</text>
<text x="-0.635" y="-0.635" size="1.27" layer="21" ratio="10">2</text>
<text x="1.905" y="-0.635" size="1.27" layer="21" ratio="10">3</text>
<rectangle x1="-0.635" y1="-2.54" x2="0.635" y2="-1.27" layer="21"/>
<rectangle x1="1.905" y1="-2.54" x2="3.175" y2="-1.27" layer="21"/>
<rectangle x1="-3.175" y1="-2.54" x2="-1.905" y2="-1.27" layer="21"/>
<rectangle x1="2.159" y1="-3.429" x2="2.921" y2="-2.54" layer="21"/>
<rectangle x1="2.159" y1="-5.08" x2="2.921" y2="-3.429" layer="51"/>
<rectangle x1="-0.381" y1="-3.429" x2="0.381" y2="-2.54" layer="21"/>
<rectangle x1="-2.921" y1="-3.429" x2="-2.159" y2="-2.54" layer="21"/>
<rectangle x1="-0.381" y1="-5.08" x2="0.381" y2="-3.429" layer="51"/>
<rectangle x1="-2.921" y1="-5.08" x2="-2.159" y2="-3.429" layer="51"/>
<hole x="0" y="17.78" drill="3.302"/>
</package>
</packages>
<symbols>
<symbol name="IGFET-EP-GDS">
<wire x1="-2.54" y1="-2.54" x2="-1.2192" y2="-2.54" width="0.1524" layer="94"/>
<wire x1="0" y1="0.762" x2="0" y2="0" width="0.254" layer="94"/>
<wire x1="0" y1="0" x2="0" y2="-0.762" width="0.254" layer="94"/>
<wire x1="0" y1="3.683" x2="0" y2="1.397" width="0.254" layer="94"/>
<wire x1="0.635" y1="0.635" x2="1.905" y2="0" width="0.254" layer="94"/>
<wire x1="0.635" y1="-0.635" x2="1.905" y2="0" width="0.254" layer="94"/>
<wire x1="0" y1="0" x2="1.905" y2="0" width="0.1524" layer="94"/>
<wire x1="1.905" y1="0" x2="2.54" y2="0" width="0.1524" layer="94"/>
<wire x1="2.54" y1="0" x2="2.54" y2="-2.54" width="0.1524" layer="94"/>
<wire x1="0" y1="-1.397" x2="0" y2="-3.683" width="0.254" layer="94"/>
<wire x1="-1.143" y1="2.54" x2="-1.143" y2="-2.54" width="0.254" layer="94"/>
<text x="-11.43" y="0" size="1.778" layer="96">&gt;VALUE</text>
<text x="-11.43" y="2.54" size="1.778" layer="95">&gt;NAME</text>
<pin name="D" x="5.08" y="2.54" visible="off" length="middle" direction="pas" rot="R180"/>
<pin name="S" x="5.08" y="-2.54" visible="off" length="middle" direction="pas" rot="R180"/>
<pin name="G" x="-5.08" y="-2.54" visible="off" length="short" direction="pas"/>
</symbol>
<symbol name="IGFET-EN-GDS">
<wire x1="-2.54" y1="-2.54" x2="-1.2192" y2="-2.54" width="0.1524" layer="94"/>
<wire x1="0" y1="0.762" x2="0" y2="0" width="0.254" layer="94"/>
<wire x1="0" y1="0" x2="0" y2="-0.762" width="0.254" layer="94"/>
<wire x1="0" y1="3.683" x2="0" y2="1.397" width="0.254" layer="94"/>
<wire x1="1.905" y1="0.635" x2="0.635" y2="0" width="0.254" layer="94"/>
<wire x1="1.905" y1="-0.635" x2="0.635" y2="0" width="0.254" layer="94"/>
<wire x1="0" y1="0" x2="0.635" y2="0" width="0.1524" layer="94"/>
<wire x1="0.635" y1="0" x2="2.54" y2="0" width="0.1524" layer="94"/>
<wire x1="2.54" y1="0" x2="2.54" y2="-2.54" width="0.1524" layer="94"/>
<wire x1="0" y1="-1.397" x2="0" y2="-3.683" width="0.254" layer="94"/>
<wire x1="-1.143" y1="2.54" x2="-1.143" y2="-2.54" width="0.254" layer="94"/>
<text x="-11.43" y="0" size="1.778" layer="96">&gt;VALUE</text>
<text x="-11.43" y="2.54" size="1.778" layer="95">&gt;NAME</text>
<pin name="D" x="5.08" y="2.54" visible="off" length="middle" direction="pas" rot="R180"/>
<pin name="S" x="5.08" y="-2.54" visible="off" length="middle" direction="pas" rot="R180"/>
<pin name="G" x="-5.08" y="-2.54" visible="off" length="short" direction="pas"/>
</symbol>
</symbols>
<devicesets>
<deviceset name="BSS92" prefix="Q">
<description>&lt;b&gt;P-Channel Enhancement MOSFET&lt;/b&gt; -200V; -0,15A; 11Ohm</description>
<gates>
<gate name="G$1" symbol="IGFET-EP-GDS" x="0" y="0"/>
</gates>
<devices>
<device name="" package="TO92">
<connects>
<connect gate="G$1" pin="D" pad="2"/>
<connect gate="G$1" pin="G" pad="1"/>
<connect gate="G$1" pin="S" pad="3"/>
</connects>
<technologies>
<technology name=""/>
</technologies>
</device>
</devices>
</deviceset>
<deviceset name="BSS97" prefix="Q">
<description>&lt;b&gt;N-Channel Enhancement MOSFET&lt;/b&gt; 200V; 1.5A; 1,6Ohm</description>
<gates>
<gate name="G$1" symbol="IGFET-EN-GDS" x="0" y="0"/>
</gates>
<devices>
<device name="" package="TO202">
<connects>
<connect gate="G$1" pin="D" pad="2"/>
<connect gate="G$1" pin="G" pad="3"/>
<connect gate="G$1" pin="S" pad="1"/>
</connects>
<technologies>
<technology name=""/>
</technologies>
</device>
</devices>
</deviceset>
</devicesets>
</library>
<library name="supply1">
<description>&lt;b&gt;Supply Symbols&lt;/b&gt;&lt;p&gt;
 GND, VCC, 0V, +5V, -5V, etc.&lt;p&gt;
 Please keep in mind, that these devices are necessary for the
 automatic wiring of the supply signals.&lt;p&gt;
 The pin name defined in the symbol is identical to the net which is to be wired automatically.&lt;p&gt;
 In this library the device names are the same as the pin names of the symbols, therefore the correct signal names appear next to the supply symbols in the schematic.&lt;p&gt;
 &lt;author&gt;Created by librarian@cadsoft.de&lt;/author&gt;</description>
<packages>
</packages>
<symbols>
<symbol name="VCC">
<wire x1="1.27" y1="-1.905" x2="0" y2="0" width="0.254" layer="94"/>
<wire x1="0" y1="0" x2="-1.27" y2="-1.905" width="0.254" layer="94"/>
<text x="-2.54" y="-2.54" size="1.778" layer="96" rot="R90">&gt;VALUE</text>
<pin name="VCC" x="0" y="-2.54" visible="off" length="short" direction="sup" rot="R90"/>
</symbol>
<symbol name="GND">
<wire x1="-1.905" y1="0" x2="1.905" y2="0" width="0.254" layer="94"/>
<text x="-2.54" y="-2.54" size="1.778" layer="96">&gt;VALUE</text>
<pin name="GND" x="0" y="2.54" visible="off" length="short" direction="sup" rot="R270"/>
</symbol>
</symbols>
<devicesets>
<deviceset name="VCC" prefix="P+">
<description>&lt;b&gt;SUPPLY SYMBOL&lt;/b&gt;</description>
<gates>
<gate name="VCC" symbol="VCC" x="0" y="0"/>
</gates>
<devices>
<device name="">
<technologies>
<technology name=""/>
</technologies>
</device>
</devices>
</deviceset>
<deviceset name="GND" prefix="GND">
<description>&lt;b&gt;SUPPLY SYMBOL&lt;/b&gt;</description>
<gates>
<gate name="1" symbol="GND" x="0" y="0"/>
</gates>
<devices>
<device name="">
<technologies>
<technology name=""/>
</technologies>
</device>
</devices>
</deviceset>
</devicesets>
</library>
</libraries>
<attributes>
</attributes>
<variantdefs>
</variantdefs>
<classes>
<class number="0" name="default" width="0" drill="0">
</class>
</classes>
<parts>
<part name="Q1" library="transistor-fet" deviceset="BSS92" device="" value=""/>
<part name="Q2" library="transistor-fet" deviceset="BSS97" device="" value=""/>
<part name="P+1" library="supply1" deviceset="VCC" device=""/>
<part name="GND1" library="supply1" deviceset="GND" device=""/>
</parts>
<sheets>
<sheet>
<plain>
<text x="22.86" y="48.768" size="1.778" layer="91">X</text>
<text x="44.196" y="49.022" size="1.778" layer="91">!X</text>
</plain>
<instances>
<instance part="Q1" gate="G$1" x="33.02" y="53.34" smashed="yes" rot="MR180">
<attribute name="VALUE" x="21.59" y="53.34" size="1.778" layer="96" rot="MR180"/>
<attribute name="NAME" x="29.21" y="59.944" size="1.778" layer="95" rot="MR180"/>
</instance>
<instance part="Q2" gate="G$1" x="33.02" y="43.18" smashed="yes">
<attribute name="VALUE" x="21.59" y="43.18" size="1.778" layer="96"/>
<attribute name="NAME" x="29.21" y="46.736" size="1.778" layer="95"/>
</instance>
<instance part="P+1" gate="VCC" x="38.1" y="66.04" smashed="yes">
<attribute name="VALUE" x="35.814" y="66.802" size="1.778" layer="96"/>
</instance>
<instance part="GND1" gate="1" x="38.1" y="30.48"/>
</instances>
<busses>
</busses>
<nets>
<net name="GND" class="0">
<segment>
<pinref part="Q2" gate="G$1" pin="S"/>
<pinref part="GND1" gate="1" pin="GND"/>
<wire x1="38.1" y1="40.64" x2="38.1" y2="33.02" width="0.1524" layer="91"/>
</segment>
</net>
<net name="N$2" class="0">
<segment>
<pinref part="Q2" gate="G$1" pin="D"/>
<wire x1="38.1" y1="48.26" x2="38.1" y2="45.72" width="0.1524" layer="91"/>
<wire x1="38.1" y1="48.26" x2="45.72" y2="48.26" width="0.1524" layer="91"/>
<pinref part="Q1" gate="G$1" pin="D"/>
<wire x1="38.1" y1="50.8" x2="38.1" y2="48.26" width="0.1524" layer="91"/>
<junction x="38.1" y="48.26"/>
</segment>
</net>
<net name="N$1" class="0">
<segment>
<pinref part="Q2" gate="G$1" pin="G"/>
<wire x1="27.94" y1="40.64" x2="27.94" y2="48.26" width="0.1524" layer="91"/>
<wire x1="27.94" y1="48.26" x2="22.86" y2="48.26" width="0.1524" layer="91"/>
<pinref part="Q1" gate="G$1" pin="G"/>
<wire x1="27.94" y1="48.26" x2="27.94" y2="55.88" width="0.1524" layer="91"/>
<junction x="27.94" y="48.26"/>
</segment>
</net>
<net name="VCC" class="0">
<segment>
<pinref part="Q1" gate="G$1" pin="S"/>
<pinref part="P+1" gate="VCC" pin="VCC"/>
<wire x1="38.1" y1="55.88" x2="38.1" y2="63.5" width="0.1524" layer="91"/>
</segment>
</net>
</nets>
</sheet>
</sheets>
</schematic>
</drawing>
</eagle>
